{
	"info": {
		"_postman_id": "a1e8dfc9-4f51-4318-a559-4ed8990bab68",
		"name": "interview",
		"schema": "https://schema.getpostman.com/json/collection/v2.1.0/collection.json"
	},
	"item": [
		{
			"name": "users",
			"item": [
				{
					"name": "http://localhost:3000/users/register",
					"request": {
						"method": "POST",
						"header": [],
						"body": {
							"mode": "raw",
							"raw": "{\n    \"username\": \"kani\",\n    \"name\": \"kannan\",\n    \"password\":\"12345678\",\n    \"confirm_password\": \"12345678\",\n    \"email\": \"kannan@yopmail.com\",\n    \"mobile\": \"9876540129\"\n}",
							"options": {
								"raw": {
									"language": "json"
								}
							}
						},
						"url": {
							"raw": "http://localhost:3000/users/register",
							"protocol": "http",
							"host": [
								"localhost"
							],
							"port": "3000",
							"path": [
								"users",
								"register"
							]
						}
					},
					"response": []
				},
				{
					"name": "http://localhost:3000/users/login",
					"request": {
						"method": "POST",
						"header": [],
						"body": {
							"mode": "raw",
							"raw": "{\n    \"username\": \"kani\",\n    \"password\":\"12345678\"\n}",
							"options": {
								"raw": {
									"language": "json"
								}
							}
						},
						"url": {
							"raw": "http://localhost:3000/users/login",
							"protocol": "http",
							"host": [
								"localhost"
							],
							"port": "3000",
							"path": [
								"users",
								"login"
							]
						}
					},
					"response": []
				},
				{
					"name": "http://localhost:3000/users/addUser",
					"request": {
						"method": "POST",
						"header": [],
						"body": {
							"mode": "raw",
							"raw": "{\n    \"name\": \"saran\",\n    \"mobile\": \"9876540123\",\n    \"address\": \"17/6/Tiruvaluuvar north street, Surandai\",\n    \"city\": \"Tenkasi\",\n    \"state\": \"TamilNadu\",\n    \"added_by_id\": \"6079727b50982e7967ec51a9\",\n    \"added_by_name\": \"Cat\"\n}",
							"options": {
								"raw": {
									"language": "json"
								}
							}
						},
						"url": {
							"raw": "http://localhost:3000/users/addUser",
							"protocol": "http",
							"host": [
								"localhost"
							],
							"port": "3000",
							"path": [
								"users",
								"addUser"
							]
						}
					},
					"response": []
				},
				{
					"name": "http://localhost:3000/users/fetchMyUserList/6079727b50982e7967ec51a9",
					"request": {
						"method": "GET",
						"header": [],
						"url": {
							"raw": "http://localhost:3000/users/fetchMyUserList/6079727b50982e7967ec51a9",
							"protocol": "http",
							"host": [
								"localhost"
							],
							"port": "3000",
							"path": [
								"users",
								"fetchMyUserList",
								"6079727b50982e7967ec51a9"
							]
						}
					},
					"response": []
				},
				{
					"name": "http://localhost:3000/users/updateAddedUsers",
					"request": {
						"method": "PUT",
						"header": [],
						"body": {
							"mode": "raw",
							"raw": "{\n    \"_id\": \"60799253ef6deca58489b43e\",\n    \"updateObj\":{\n        \"name\": \"priya dharshni\",\n        \"mobile\": \"9876540120\",\n        \"address\": \"123/56 north street, Surandai\",\n        \"city\": \"Tenkasi\",\n        \"state\": \"TamilNadu\"\n    }\n}",
							"options": {
								"raw": {
									"language": "json"
								}
							}
						},
						"url": {
							"raw": "http://localhost:3000/users/updateAddedUsers",
							"protocol": "http",
							"host": [
								"localhost"
							],
							"port": "3000",
							"path": [
								"users",
								"updateAddedUsers"
							]
						}
					},
					"response": []
				},
				{
					"name": "http://localhost:3000/users/logout",
					"request": {
						"method": "POST",
						"header": [],
						"body": {
							"mode": "raw",
							"raw": "{\n    \"_id\"\n}",
							"options": {
								"raw": {
									"language": "json"
								}
							}
						},
						"url": {
							"raw": "http://localhost:3000/users/logout",
							"protocol": "http",
							"host": [
								"localhost"
							],
							"port": "3000",
							"path": [
								"users",
								"logout"
							]
						}
					},
					"response": []
				},
				{
					"name": "http://localhost:3000/users/deleteAddedUsers/60798ada599f088f2638f205",
					"request": {
						"method": "DELETE",
						"header": [],
						"url": {
							"raw": "http://localhost:3000/users/deleteAddedUsers/60798ada599f088f2638f205",
							"protocol": "http",
							"host": [
								"localhost"
							],
							"port": "3000",
							"path": [
								"users",
								"deleteAddedUsers",
								"60798ada599f088f2638f205"
							]
						}
					},
					"response": []
				}
			]
		}
	]
}